Unit,Value
019,6.864
019,6.863
019,6.863
025,6.869
025,6.870
025,6.868
007,6.861
007,6.860
007,6.859
012,6.861
012,6.860
012,6.862
005,6.862
005,6.861
005,6.860
018,6.849
018,6.850
018,6.853
027,6.866
027,6.867
027,6.865
016,6.855
016,6.854
016,6.853
002,6.854
002,6.853
002,6.853
021,6.857
021,6.856
021,6.856